{
    "products": [
      {
        "id": "f64e7f7b-116b-40e7-bc9d-f1c00de2ffb0",
        "name": "남성 블랙 스키니진",
        "description": "남성 가을 신상품 전체",
        "category": "FASHION",
        "price": 400000,
        "stock": 1,
        "productImage": null,
        "images": "/src/assets/products/default.png",
        "favoriteCount": 0,
        "createdAt": "2025-11-14T13:24:31.850Z",
        "updatedAt": "2025-11-14T13:24:31.850Z",
        "tags": []
      },
      {
        "id": "302e0444-284e-4e10-9d63-9a97ef198fd6",
        "name": "남성 블랙 스키니진",
        "description": "남성 가을 신상품 전체",
        "category": "FASHION",
        "price": 400000,
        "stock": 1,
        "productImage": null,
        "images": "/src/assets/products/default.png",
        "favoriteCount": 0,
        "createdAt": "2025-11-14T13:24:32.253Z",
        "updatedAt": "2025-11-14T13:24:32.253Z",
        "tags": []
      },
      {
        "id": "04b5233c-9ac4-4e02-ae16-517791426c50",
        "name": "남성 블랙 스키니진",
        "description": "남성 가을 신상품 전체",
        "category": "FASHION",
        "price": 400000,
        "stock": 1,
        "productImage": null,
        "images": "/src/assets/products/default.png",
        "favoriteCount": 0,
        "createdAt": "2025-11-14T13:24:32.447Z",
        "updatedAt": "2025-11-14T13:24:32.447Z",
        "tags": []
      },
      {
        "id": "87f32110-7ecb-413f-b2a7-aaf51976a44c",
        "name": "남성 블랙 스키니진",
        "description": "남성 가을 신상품 전체",
        "category": "FASHION",
        "price": 400000,
        "stock": 1,
        "productImage": null,
        "images": "/src/assets/products/default.png",
        "favoriteCount": 0,
        "createdAt": "2025-11-14T13:24:32.648Z",
        "updatedAt": "2025-11-14T13:24:32.648Z",
        "tags": []
      },
      {
        "id": "16655b57-9f5b-4de5-b960-523f10ccecba",
        "name": "남성 블랙 스키니진",
        "description": "남성 가을 신상품 전체",
        "category": "FASHION",
        "price": 400000,
        "stock": 1,
        "productImage": null,
        "images": "/src/assets/products/default.png",
        "favoriteCount": 0,
        "createdAt": "2025-11-14T13:24:33.573Z",
        "updatedAt": "2025-11-14T13:24:33.573Z",
        "tags": []
      },
      {
        "id": "61d71668-8bd1-4e56-8667-5fb3f34fa1fd",
        "name": "남성 블랙 스키니진",
        "description": "남성 가을 신상품 전체",
        "category": "FASHION",
        "price": 400000,
        "stock": 1,
        "productImage": null,
        "images": "/src/assets/products/default.png",
        "favoriteCount": 0,
        "createdAt": "2025-11-14T13:24:34.187Z",
        "updatedAt": "2025-11-14T13:24:34.187Z",
        "tags": []
      },
      {
        "id": "8e259c6e-f459-4a95-9ae1-6c0652f4a63f",
        "name": "남성 블랙 스키니진",
        "description": "남성 가을 신상품 전체",
        "category": "FASHION",
        "price": 400000,
        "stock": 1,
        "productImage": null,
        "images": "/src/assets/products/default.png",
        "favoriteCount": 0,
        "createdAt": "2025-11-14T13:24:34.440Z",
        "updatedAt": "2025-11-14T13:24:34.440Z",
        "tags": []
      },
      {
        "id": "a0af39d8-394b-43be-942f-f7125856bf12",
        "name": "남성 블랙 스키니진",
        "description": "남성 가을 신상품 전체",
        "category": "FASHION",
        "price": 400000,
        "stock": 1,
        "productImage": null,
        "images": "/src/assets/products/default.png",
        "favoriteCount": 0,
        "createdAt": "2025-11-14T13:24:34.752Z",
        "updatedAt": "2025-11-14T13:24:34.752Z",
        "tags": []
      },
      {
        "id": "05769544-fe75-486f-8c18-a710de2a52fa",
        "name": "남성 블랙 스키니진",
        "description": "남성 가을 신상품 전체",
        "category": "FASHION",
        "price": 400000,
        "stock": 1,
        "productImage": null,
        "images": "/src/assets/products/default.png",
        "favoriteCount": 0,
        "createdAt": "2025-11-14T13:24:34.943Z",
        "updatedAt": "2025-11-14T13:24:34.943Z",
        "tags": []
      },
      {
        "id": "4510bde6-2094-42e0-8457-38b57862f376",
        "name": "남성 스키니진 신상품",
        "description": "남성 가을 신상품 전체",
        "category": "FASHION",
        "price": 180000,
        "stock": 121,
        "productImage": null,
        "images": "/src/assets/products/default.png",
        "favoriteCount": 0,
        "createdAt": "2025-11-14T13:23:54.916Z",
        "updatedAt": "2025-11-14T13:23:54.916Z",
        "tags": []
      }
    ],
    "totalCount": 70,
    "page": 1,
    "pageSize": 10,
    "totalPages": 7
  }